%YAML 1.1
%TAG !u! tag:unity3d.com,2011:
--- !u!1045 &1
EditorBuildSettings:
  m_ObjectHideFlags: 0
  serializedVersion: 2
  m_Scenes:
  - enabled: 1
    path: "Assets/Scenes/StartMen\xFC.unity"
    guid: d3e510e3afbd7924583f92a719372ce6
  - enabled: 1
    path: Assets/Scenes/SceneScandi.unity
    guid: 48803ef7855c67b41a4d7fe0d5454249
  - enabled: 1
    path: Assets/Scenes/SceneIce.unity
    guid: 129a98c2ccbd2e243a98b0af897d45b1
  - enabled: 1
    path: Assets/Scenes/SceneSpace.unity
    guid: 03764d102688a524cab4efa8860e2f50
  - enabled: 1
    path: "Assets/Scenes/EndMen\xFC.unity"
    guid: a8b958d16d9389a4f8aaafdef4587fc7
